{
  "page": 1,
  "per_page": 15,
  "photos": [
    {
      "id": 15286,
      "width": 2500,
      "height": 1667,
      "url": "https://www.pexels.com/photo/person-walking-between-green-forest-trees-15286/",
      "photographer": "Luis del Río",
      "photographer_url": "https://www.pexels.com/@luisdelrio",
      "photographer_id": 1081,
      "avg_color": "#283419",
      "src": {
        "original": "https://images.pexels.com/photos/2252541/pexels-photo-2252541.jpeg",
        "large2x": "https://images.pexels.com/photos/2252541/pexels-photo-2252541.jpeg?auto=compress&cs=tinysrgb&dpr=2&h=650&w=940",
        "large": "https://images.pexels.com/photos/2252541/pexels-photo-2252541.jpeg?auto=compress&cs=tinysrgb&h=650&w=940",
        "medium": "https://images.pexels.com/photos/2252541/pexels-photo-2252541.jpeg?auto=compress&cs=tinysrgb&h=350",
        "small": "https://images.pexels.com/photos/2252541/pexels-photo-2252541.jpeg?auto=compress&cs=tinysrgb&h=130",
        "portrait": "https://images.pexels.com/photos/2252541/pexels-photo-2252541.jpeg?auto=compress&cs=tinysrgb&fit=crop&h=1200&w=800",
        "landscape": "https://images.pexels.com/photos/2252541/pexels-photo-2252541.jpeg?auto=compress&cs=tinysrgb&fit=crop&h=627&w=1200",
        "tiny": "https://images.pexels.com/photos/2252541/pexels-photo-2252541.jpeg?auto=compress&cs=tinysrgb&dpr=1&fit=crop&h=200&w=280"
      },
      "liked": false,
      "alt": "Grupo De Cerdos Rosados En Jaula"
    },
    {
      "id": 3408744,
      "width": 3546,
      "height": 2255,
      "url": "https://www.pexels.com/photo/scenic-view-of-snow-capped-mountains-during-night-3408744/",
      "photographer": "stein egil liland",
      "photographer_url": "https://www.pexels.com/@therato",
      "photographer_id": 144244,
      "avg_color": "#557088",
      "src": {
        "original": "https://images.pexels.com/photos/110820/pexels-photo-110820.jpeg",
        "large2x": "https://images.pexels.com/photos/110820/pexels-photo-110820.jpeg?auto=compress&cs=tinysrgb&dpr=2&h=650&w=940",
        "large": "https://images.pexels.com/photos/110820/pexels-photo-110820.jpeg?auto=compress&cs=tinysrgb&h=650&w=940",
        "medium": "https://images.pexels.com/photos/110820/pexels-photo-110820.jpeg?auto=compress&cs=tinysrgb&h=350",
        "small": "https://images.pexels.com/photos/110820/pexels-photo-110820.jpeg?auto=compress&cs=tinysrgb&h=130",
        "portrait": "https://images.pexels.com/photos/110820/pexels-photo-110820.jpeg?auto=compress&cs=tinysrgb&fit=crop&h=1200&w=800",
        "landscape": "https://images.pexels.com/photos/110820/pexels-photo-110820.jpeg?auto=compress&cs=tinysrgb&fit=crop&h=627&w=1200",
        "tiny": "https://images.pexels.com/photos/110820/pexels-photo-110820.jpeg?auto=compress&cs=tinysrgb&dpr=1&fit=crop&h=200&w=280"
      },
      "liked": false,
      "alt": "Cerdo Blanco"
    },
    {
      "id": 572897,
      "width": 6914,
      "height": 4463,
      "url": "https://www.pexels.com/photo/mountain-covered-snow-under-star-572897/",
      "photographer": "eberhard grossgasteiger",
      "photographer_url": "https://www.pexels.com/@eberhardgross",
      "photographer_id": 121938,
      "avg_color": "#5D5A63",
      "src": {
        "original": "https://images.pexels.com/photos/185941/pexels-photo-185941.jpeg",
        "large2x": "https://images.pexels.com/photos/185941/pexels-photo-185941.jpeg?auto=compress&cs=tinysrgb&dpr=2&h=650&w=940",
        "large": "https://images.pexels.com/photos/185941/pexels-photo-185941.jpeg?auto=compress&cs=tinysrgb&h=650&w=940",
        "medium": "https://images.pexels.com/photos/185941/pexels-photo-185941.jpeg?auto=compress&cs=tinysrgb&h=350",
        "small": "https://images.pexels.com/photos/185941/pexels-photo-185941.jpeg?auto=compress&cs=tinysrgb&h=130",
        "portrait": "https://images.pexels.com/photos/185941/pexels-photo-185941.jpeg?auto=compress&cs=tinysrgb&fit=crop&h=1200&w=800",
        "landscape": "https://images.pexels.com/photos/185941/pexels-photo-185941.jpeg?auto=compress&cs=tinysrgb&fit=crop&h=627&w=1200",
        "tiny": "https://images.pexels.com/photos/185941/pexels-photo-185941.jpeg?auto=compress&cs=tinysrgb&dpr=1&fit=crop&h=200&w=280"
      },
      "liked": false,
      "alt": "Primerísimo primer plano oink"
    },
    {
      "id": 624015,
      "width": 4216,
      "height": 2848,
      "url": "https://www.pexels.com/photo/aurora-borealis-624015/",
      "photographer": "Frans Van Heerden",
      "photographer_url": "https://www.pexels.com/@frans-van-heerden-201846",
      "photographer_id": 201846,
      "avg_color": "#71839F",
      "src": {
        "original": "https://images.pexels.com/photos/45869/pig-domestic-pig-suckle-piglet-45869.jpeg",
        "large2x": "https://images.pexels.com/photos/45869/pig-domestic-pig-suckle-piglet-45869.jpeg?auto=compress&cs=tinysrgb&dpr=2&h=650&w=940",
        "large": "https://images.pexels.com/photos/45869/pig-domestic-pig-suckle-piglet-45869.jpeg?auto=compress&cs=tinysrgb&h=650&w=940",
        "medium": "https://images.pexels.com/photos/45869/pig-domestic-pig-suckle-piglet-45869.jpeg?auto=compress&cs=tinysrgb&h=350",
        "small": "https://images.pexels.com/photos/45869/pig-domestic-pig-suckle-piglet-45869.jpeg?auto=compress&cs=tinysrgb&h=130",
        "portrait": "https://images.pexels.com/photos/45869/pig-domestic-pig-suckle-piglet-45869.jpeg?auto=compress&cs=tinysrgb&fit=crop&h=1200&w=800",
        "landscape": "https://images.pexels.com/photos/45869/pig-domestic-pig-suckle-piglet-45869.jpeg?auto=compress&cs=tinysrgb&fit=crop&h=627&w=1200",
        "tiny": "https://images.pexels.com/photos/45869/pig-domestic-pig-suckle-piglet-45869.jpeg?auto=compress&cs=tinysrgb&dpr=1&fit=crop&h=200&w=280"
      },
      "liked": false,
      "alt": "Tomando su wen desajuniors"
    },
    {
      "id": 3244513,
      "width": 5121,
      "height": 3525,
      "url": "https://www.pexels.com/photo/brown-landscape-under-grey-sky-3244513/",
      "photographer": "Andy Vu",
      "photographer_url": "https://www.pexels.com/@andyhvu",
      "photographer_id": 1653971,
      "avg_color": "#473C36",
      "src": {
        "original": "https://images.pexels.com/photos/66258/staniel-cay-swimming-pig-seagull-fish-66258.jpeg",
        "large2x": "https://images.pexels.com/photos/66258/staniel-cay-swimming-pig-seagull-fish-66258.jpeg?auto=compress&cs=tinysrgb&dpr=2&h=650&w=940",
        "large": "https://images.pexels.com/photos/66258/staniel-cay-swimming-pig-seagull-fish-66258.jpeg?auto=compress&cs=tinysrgb&h=650&w=940",
        "medium": "https://images.pexels.com/photos/66258/staniel-cay-swimming-pig-seagull-fish-66258.jpeg?auto=compress&cs=tinysrgb&h=350",
        "small": "https://images.pexels.com/photos/66258/staniel-cay-swimming-pig-seagull-fish-66258.jpeg?auto=compress&cs=tinysrgb&h=130",
        "portrait": "https://images.pexels.com/photos/66258/staniel-cay-swimming-pig-seagull-fish-66258.jpeg?auto=compress&cs=tinysrgb&fit=crop&h=1200&w=800",
        "landscape": "https://images.pexels.com/photos/66258/staniel-cay-swimming-pig-seagull-fish-66258.jpeg?auto=compress&cs=tinysrgb&fit=crop&h=627&w=1200",
        "tiny": "https://images.pexels.com/photos/66258/staniel-cay-swimming-pig-seagull-fish-66258.jpeg?auto=compress&cs=tinysrgb&dpr=1&fit=crop&h=200&w=280"
      },
      "liked": false,
      "alt": "Pasándolo chancho en el Litoral Central"
    },
    {
      "id": 3225517,
      "width": 4664,
      "height": 5830,
      "url": "https://www.pexels.com/photo/photo-of-stream-during-daytime-3225517/",
      "photographer": "Michael Block",
      "photographer_url": "https://www.pexels.com/@michael-block-1691617",
      "photographer_id": 1691617,
      "avg_color": "#6D7B7C",
      "src": {
        "original": "https://images.pexels.com/photos/1300361/pexels-photo-1300361.jpeg",
        "large2x": "https://images.pexels.com/photos/1300361/pexels-photo-1300361.jpeg?auto=compress&cs=tinysrgb&dpr=2&h=650&w=940",
        "large": "https://images.pexels.com/photos/1300361/pexels-photo-1300361.jpeg?auto=compress&cs=tinysrgb&h=650&w=940",
        "medium": "https://images.pexels.com/photos/1300361/pexels-photo-1300361.jpeg?auto=compress&cs=tinysrgb&h=350",
        "small": "https://images.pexels.com/photos/1300361/pexels-photo-1300361.jpeg?auto=compress&cs=tinysrgb&h=130",
        "portrait": "https://images.pexels.com/photos/1300361/pexels-photo-1300361.jpeg?auto=compress&cs=tinysrgb&fit=crop&h=1200&w=800",
        "landscape": "https://images.pexels.com/photos/1300361/pexels-photo-1300361.jpeg?auto=compress&cs=tinysrgb&fit=crop&h=627&w=1200",
        "tiny": "https://images.pexels.com/photos/1300361/pexels-photo-1300361.jpeg?auto=compress&cs=tinysrgb&dpr=1&fit=crop&h=200&w=280"
      },
      "liked": false,
      "alt": "Usuario promedio"
    },
    {
      "id": 1770809,
      "width": 2832,
      "height": 4240,
      "url": "https://www.pexels.com/photo/green-grass-near-trees-1770809/",
      "photographer": "Luis Dalvan",
      "photographer_url": "https://www.pexels.com/@luisdalvan",
      "photographer_id": 811128,
      "avg_color": "#325042",
      "src": {
        "original": "https://images.pexels.com/photos/236684/pexels-photo-236684.jpeg",
        "large2x": "https://images.pexels.com/photos/236684/pexels-photo-236684.jpeg?auto=compress&cs=tinysrgb&dpr=2&h=650&w=940",
        "large": "https://images.pexels.com/photos/236684/pexels-photo-236684.jpeg?auto=compress&cs=tinysrgb&h=650&w=940",
        "medium": "https://images.pexels.com/photos/236684/pexels-photo-236684.jpeg?auto=compress&cs=tinysrgb&h=350",
        "small": "https://images.pexels.com/photos/236684/pexels-photo-236684.jpeg?auto=compress&cs=tinysrgb&h=130",
        "portrait": "https://images.pexels.com/photos/236684/pexels-photo-236684.jpeg?auto=compress&cs=tinysrgb&fit=crop&h=1200&w=800",
        "landscape": "https://images.pexels.com/photos/236684/pexels-photo-236684.jpeg?auto=compress&cs=tinysrgb&fit=crop&h=627&w=1200",
        "tiny": "https://images.pexels.com/photos/236684/pexels-photo-236684.jpeg?auto=compress&cs=tinysrgb&dpr=1&fit=crop&h=200&w=280"
      },
      "liked": false,
      "alt": "Su foto pal feiz"
    },
    {
      "id": 1761279,
      "width": 3685,
      "height": 5527,
      "url": "https://www.pexels.com/photo/first-perspective-photography-of-hanging-bridge-1761279/",
      "photographer": "Jacob Colvin",
      "photographer_url": "https://www.pexels.com/@jake-pnw",
      "photographer_id": 825671,
      "avg_color": "#353633",
      "src": {
        "original": "https://images.pexels.com/photos/1050100/pexels-photo-1050100.jpeg",
        "large2x": "https://images.pexels.com/photos/1050100/pexels-photo-1050100.jpeg?auto=compress&cs=tinysrgb&dpr=2&h=650&w=940",
        "large": "https://images.pexels.com/photos/1050100/pexels-photo-1050100.jpeg?auto=compress&cs=tinysrgb&h=650&w=940",
        "medium": "https://images.pexels.com/photos/1050100/pexels-photo-1050100.jpeg?auto=compress&cs=tinysrgb&h=350",
        "small": "https://images.pexels.com/photos/1050100/pexels-photo-1050100.jpeg?auto=compress&cs=tinysrgb&h=130",
        "portrait": "https://images.pexels.com/photos/1050100/pexels-photo-1050100.jpeg?auto=compress&cs=tinysrgb&fit=crop&h=1200&w=800",
        "landscape": "https://images.pexels.com/photos/1050100/pexels-photo-1050100.jpeg?auto=compress&cs=tinysrgb&fit=crop&h=627&w=1200",
        "tiny": "https://images.pexels.com/photos/1050100/pexels-photo-1050100.jpeg?auto=compress&cs=tinysrgb&dpr=1&fit=crop&h=200&w=280"
      },
      "liked": false,
      "alt": "Esta helao Juan"
    },
    {
      "id": 3214944,
      "width": 3807,
      "height": 5710,
      "url": "https://www.pexels.com/photo/palm-trees-at-beach-3214944/",
      "photographer": "Alex Azabache",
      "photographer_url": "https://www.pexels.com/@alexazabache",
      "photographer_id": 1664241,
      "avg_color": "#7F645B",
      "src": {
        "original": "https://images.pexels.com/photos/787840/pexels-photo-787840.jpeg",
        "large2x": "https://images.pexels.com/photos/787840/pexels-photo-787840.jpeg?auto=compress&cs=tinysrgb&dpr=2&h=650&w=940",
        "large": "https://images.pexels.com/photos/787840/pexels-photo-787840.jpeg?auto=compress&cs=tinysrgb&h=650&w=940",
        "medium": "https://images.pexels.com/photos/787840/pexels-photo-787840.jpeg?auto=compress&cs=tinysrgb&h=350",
        "small": "https://images.pexels.com/photos/787840/pexels-photo-787840.jpeg?auto=compress&cs=tinysrgb&h=130",
        "portrait": "https://images.pexels.com/photos/787840/pexels-photo-787840.jpeg?auto=compress&cs=tinysrgb&fit=crop&h=1200&w=800",
        "landscape": "https://images.pexels.com/photos/787840/pexels-photo-787840.jpeg?auto=compress&cs=tinysrgb&fit=crop&h=627&w=1200",
        "tiny": "https://images.pexels.com/photos/787840/pexels-photo-787840.jpeg?auto=compress&cs=tinysrgb&dpr=1&fit=crop&h=200&w=280"
      },
      "liked": false,
      "alt": "El malandro del barrio"
    },
    {
      "id": 1402850,
      "width": 5211,
      "height": 6514,
      "url": "https://www.pexels.com/photo/man-standing-on-cliff-watching-punch-bowl-waterfalls-1402850/",
      "photographer": "S Migaj",
      "photographer_url": "https://www.pexels.com/@simonmigaj",
      "photographer_id": 233851,
      "avg_color": "#817A46",
      "src": {
        "original": "https://images.pexels.com/photos/1840756/pexels-photo-1840756.jpeg",
        "large2x": "https://images.pexels.com/photos/1840756/pexels-photo-1840756.jpeg?auto=compress&cs=tinysrgb&dpr=2&h=650&w=940",
        "large": "https://images.pexels.com/photos/1840756/pexels-photo-1840756.jpeg?auto=compress&cs=tinysrgb&h=650&w=940",
        "medium": "https://images.pexels.com/photos/1840756/pexels-photo-1840756.jpeg?auto=compress&cs=tinysrgb&h=350",
        "small": "https://images.pexels.com/photos/1840756/pexels-photo-1840756.jpeg?auto=compress&cs=tinysrgb&h=130",
        "portrait": "https://images.pexels.com/photos/1840756/pexels-photo-1840756.jpeg?auto=compress&cs=tinysrgb&fit=crop&h=1200&w=800",
        "landscape": "https://images.pexels.com/photos/1840756/pexels-photo-1840756.jpeg?auto=compress&cs=tinysrgb&fit=crop&h=627&w=1200",
        "tiny": "https://images.pexels.com/photos/1840756/pexels-photo-1840756.jpeg?auto=compress&cs=tinysrgb&dpr=1&fit=crop&h=200&w=280"
      },
      "liked": false,
      "alt": "Not Pork"
    },
    {
      "id": 3293148,
      "width": 5832,
      "height": 3888,
      "url": "https://www.pexels.com/photo/silhouette-of-a-person-on-a-swing-3293148/",
      "photographer": "Asad Photo Maldives",
      "photographer_url": "https://www.pexels.com/@asadphotography",
      "photographer_id": 45786,
      "avg_color": "#374962",
      "src": {
        "original": "https://images.pexels.com/photos/10012853/pexels-photo-10012853.jpeg",
        "large2x": "https://images.pexels.com/photos/10012853/pexels-photo-10012853.jpeg?auto=compress&cs=tinysrgb&dpr=2&h=650&w=940",
        "large": "https://images.pexels.com/photos/10012853/pexels-photo-10012853.jpeg?auto=compress&cs=tinysrgb&h=650&w=940",
        "medium": "https://images.pexels.com/photos/10012853/pexels-photo-10012853.jpeg?auto=compress&cs=tinysrgb&h=350",
        "small": "https://images.pexels.com/photos/10012853/pexels-photo-10012853.jpeg?auto=compress&cs=tinysrgb&h=130",
        "portrait": "https://images.pexels.com/photos/10012853/pexels-photo-10012853.jpeg?auto=compress&cs=tinysrgb&fit=crop&h=1200&w=800",
        "landscape": "https://images.pexels.com/photos/10012853/pexels-photo-10012853.jpeg?auto=compress&cs=tinysrgb&fit=crop&h=627&w=1200",
        "tiny": "https://images.pexels.com/photos/10012853/pexels-photo-10012853.jpeg?auto=compress&cs=tinysrgb&dpr=1&fit=crop&h=200&w=280"
      },
      "liked": false,
      "alt": "El colorín"
    },
    {
      "id": 3329292,
      "width": 3635,
      "height": 5452,
      "url": "https://www.pexels.com/photo/back-view-of-a-woman-walking-on-a-log-in-the-forest-3329292/",
      "photographer": "Brady Knoll",
      "photographer_url": "https://www.pexels.com/@trvlust",
      "photographer_id": 1428578,
      "avg_color": "#3B3E34",
      "src": {
        "original": "https://images.pexels.com/photos/2737175/pexels-photo-2737175.jpeg",
        "large2x": "https://images.pexels.com/photos/2737175/pexels-photo-2737175.jpeg?auto=compress&cs=tinysrgb&dpr=2&h=650&w=940",
        "large": "https://images.pexels.com/photos/2737175/pexels-photo-2737175.jpeg?auto=compress&cs=tinysrgb&h=650&w=940",
        "medium": "https://images.pexels.com/photos/2737175/pexels-photo-2737175.jpeg?auto=compress&cs=tinysrgb&h=350",
        "small": "https://images.pexels.com/photos/2737175/pexels-photo-2737175.jpeg?auto=compress&cs=tinysrgb&h=130",
        "portrait": "https://images.pexels.com/photos/2737175/pexels-photo-2737175.jpeg?auto=compress&cs=tinysrgb&fit=crop&h=1200&w=800",
        "landscape": "https://images.pexels.com/photos/2737175/pexels-photo-2737175.jpeg?auto=compress&cs=tinysrgb&fit=crop&h=627&w=1200",
        "tiny": "https://images.pexels.com/photos/2737175/pexels-photo-2737175.jpeg?auto=compress&cs=tinysrgb&dpr=1&fit=crop&h=200&w=280"
      },
      "liked": false,
      "alt": "En el metro línea 1"
    },
    {
      "id": 3331094,
      "width": 2992,
      "height": 3992,
      "url": "https://www.pexels.com/photo/areal-photo-of-sea-wave-3331094/",
      "photographer": "Max Ravier",
      "photographer_url": "https://www.pexels.com/@maxravier",
      "photographer_id": 1183810,
      "avg_color": "#3F4C4D",
      "src": {
        "original": "https://images.pexels.com/photos/7963570/pexels-photo-7963570.jpeg",
        "large2x": "https://images.pexels.com/photos/7963570/pexels-photo-7963570.jpeg?auto=compress&cs=tinysrgb&dpr=2&h=650&w=940",
        "large": "https://images.pexels.com/photos/7963570/pexels-photo-7963570.jpeg?auto=compress&cs=tinysrgb&h=650&w=940",
        "medium": "https://images.pexels.com/photos/7963570/pexels-photo-7963570.jpeg?auto=compress&cs=tinysrgb&h=350",
        "small": "https://images.pexels.com/photos/7963570/pexels-photo-7963570.jpeg?auto=compress&cs=tinysrgb&h=130",
        "portrait": "https://images.pexels.com/photos/7963570/pexels-photo-7963570.jpeg?auto=compress&cs=tinysrgb&fit=crop&h=1200&w=800",
        "landscape": "https://images.pexels.com/photos/7963570/pexels-photo-7963570.jpeg?auto=compress&cs=tinysrgb&fit=crop&h=627&w=1200",
        "tiny": "https://images.pexels.com/photos/7963570/pexels-photo-7963570.jpeg?auto=compress&cs=tinysrgb&dpr=1&fit=crop&h=200&w=280"
      },
      "liked": false,
      "alt": "Literal animal print, qué saen"
    },
    {
      "id": 3464632,
      "width": 2242,
      "height": 3992,
      "url": "https://www.pexels.com/photo/watercrafts-on-river-3464632/",
      "photographer": "Jeremy Bishop",
      "photographer_url": "https://www.pexels.com/@jeremy-bishop-1260133",
      "photographer_id": 1260133,
      "avg_color": "#736B3E",
      "src": {
        "original": "https://images.pexels.com/photos/7588703/pexels-photo-7588703.jpeg",
        "large2x": "https://images.pexels.com/photos/7588703/pexels-photo-7588703.jpeg?auto=compress&cs=tinysrgb&dpr=2&h=650&w=940",
        "large": "https://images.pexels.com/photos/7588703/pexels-photo-7588703.jpeg?auto=compress&cs=tinysrgb&h=650&w=940",
        "medium": "https://images.pexels.com/photos/7588703/pexels-photo-7588703.jpeg?auto=compress&cs=tinysrgb&h=350",
        "small": "https://images.pexels.com/photos/7588703/pexels-photo-7588703.jpeg?auto=compress&cs=tinysrgb&h=130",
        "portrait": "https://images.pexels.com/photos/7588703/pexels-photo-7588703.jpeg?auto=compress&cs=tinysrgb&fit=crop&h=1200&w=800",
        "landscape": "https://images.pexels.com/photos/7588703/pexels-photo-7588703.jpeg?auto=compress&cs=tinysrgb&fit=crop&h=627&w=1200",
        "tiny": "https://images.pexels.com/photos/7588703/pexels-photo-7588703.jpeg?auto=compress&cs=tinysrgb&dpr=1&fit=crop&h=200&w=280"
      },
      "liked": false,
      "alt": "El colao"
    },
    {
      "id": 3509971,
      "width": 3992,
      "height": 2992,
      "url": "https://www.pexels.com/photo/aerial-photography-of-snow-covered-trees-3509971/",
      "photographer": "Tomáš Malík",
      "photographer_url": "https://www.pexels.com/@tomas-malik-793526",
      "photographer_id": 793526,
      "avg_color": "#647185",
      "src": {
        "original": "https://images.pexels.com/photos/2256062/pexels-photo-2256062.jpeg",
        "large2x": "https://images.pexels.com/photos/2256062/pexels-photo-2256062.jpeg?auto=compress&cs=tinysrgb&dpr=2&h=650&w=940",
        "large": "https://images.pexels.com/photos/2256062/pexels-photo-2256062.jpeg?auto=compress&cs=tinysrgb&h=650&w=940",
        "medium": "https://images.pexels.com/photos/2256062/pexels-photo-2256062.jpeg?auto=compress&cs=tinysrgb&h=350",
        "small": "https://images.pexels.com/photos/2256062/pexels-photo-2256062.jpeg?auto=compress&cs=tinysrgb&h=130",
        "portrait": "https://images.pexels.com/photos/2256062/pexels-photo-2256062.jpeg?auto=compress&cs=tinysrgb&fit=crop&h=1200&w=800",
        "landscape": "https://images.pexels.com/photos/2256062/pexels-photo-2256062.jpeg?auto=compress&cs=tinysrgb&fit=crop&h=627&w=1200",
        "tiny": "https://images.pexels.com/photos/2256062/pexels-photo-2256062.jpeg?auto=compress&cs=tinysrgb&dpr=1&fit=crop&h=200&w=280"
      },
      "liked": false,
      "alt": "El degenereke que le dicen"
    }
  ],
  "total_results": 8000,
  "next_page": "https://api.pexels.com/v1/search/?page=2&per_page=15&query=nature"
}